<define-tag pagetitle>DLA-2925-1 drupal7</define-tag>
<define-tag report_date>2022-2-16</define-tag>
<define-tag packages>drupal7</define-tag>
<define-tag isvulnerable>yes</define-tag>
<define-tag fixed>yes</define-tag>
<define-tag fixed-section>no</define-tag>

#use wml::debian::security

