<define-tag pagetitle>DSA-4854-1 webkit2gtk</define-tag>
<define-tag report_date>2021-2-17</define-tag>
<define-tag secrefs>CVE-2020-13558</define-tag>
<define-tag packages>webkit2gtk</define-tag>
<define-tag isvulnerable>yes</define-tag>
<define-tag fixed>yes</define-tag>
<define-tag fixed-section>no</define-tag>

#use wml::debian::security



</dl>
