<define-tag pagetitle>DSA-5008-1 node-tar</define-tag>
<define-tag report_date>2021-11-11</define-tag>
<define-tag secrefs>CVE-2021-37701 CVE-2021-37712</define-tag>
<define-tag packages>node-tar</define-tag>
<define-tag isvulnerable>yes</define-tag>
<define-tag fixed>yes</define-tag>
<define-tag fixed-section>no</define-tag>

#use wml::debian::security



</dl>
