<define-tag pagetitle>DLA-2692-1 bluez</define-tag>
<define-tag report_date>2021-6-26</define-tag>
<define-tag secrefs>CVE-2020-26558 CVE-2021-0129</define-tag>
<define-tag packages>bluez</define-tag>
<define-tag isvulnerable>yes</define-tag>
<define-tag fixed>yes</define-tag>
<define-tag fixed-section>no</define-tag>

#use wml::debian::security

