<define-tag pagetitle>DLA-2552-1 connman</define-tag>
<define-tag report_date>2021-2-9</define-tag>
<define-tag secrefs>CVE-2021-26675 CVE-2021-26676</define-tag>
<define-tag packages>connman</define-tag>
<define-tag isvulnerable>yes</define-tag>
<define-tag fixed>yes</define-tag>
<define-tag fixed-section>no</define-tag>

#use wml::debian::security

