<define-tag pagetitle>DLA-2806-1 glusterfs</define-tag>
<define-tag report_date>2021-11-02</define-tag>
<define-tag secrefs>CVE-2018-1088 CVE-2018-10841 CVE-2018-10904 CVE-2018-10907 CVE-2018-10911 CVE-2018-10913 CVE-2018-10914 CVE-2018-10923 CVE-2018-10926 CVE-2018-10927 CVE-2018-10928 CVE-2018-10929 CVE-2018-10930 CVE-2018-14652 CVE-2018-14653 CVE-2018-14654 CVE-2018-14659 CVE-2018-14660 CVE-2018-14661 Bug#909215</define-tag>
<define-tag packages>glusterfs</define-tag>
<define-tag isvulnerable>yes</define-tag>
<define-tag fixed>yes</define-tag>
<define-tag fixed-section>no</define-tag>

#use wml::debian::security

