<define-tag pagetitle>DLA-2791-1 mailman</define-tag>
<define-tag report_date>2021-10-26</define-tag>
<define-tag secrefs>CVE-2021-42096 CVE-2021-42097</define-tag>
<define-tag packages>mailman</define-tag>
<define-tag isvulnerable>yes</define-tag>
<define-tag fixed>yes</define-tag>
<define-tag fixed-section>no</define-tag>

#use wml::debian::security
