<define-tag pagetitle>DLA-2702-1 djvulibre</define-tag>
<define-tag report_date>2021-07-04</define-tag>
<define-tag secrefs>CVE-2021-3630</define-tag>
<define-tag packages>djvulibre</define-tag>
<define-tag isvulnerable>yes</define-tag>
<define-tag fixed>yes</define-tag>
<define-tag fixed-section>no</define-tag>

#use wml::debian::security

