<define-tag pagetitle>DLA-2773-1 curl</define-tag>
<define-tag report_date>2021-9-30</define-tag>
<define-tag secrefs>CVE-2021-22946 CVE-2021-22947</define-tag>
<define-tag packages>curl</define-tag>
<define-tag isvulnerable>yes</define-tag>
<define-tag fixed>yes</define-tag>
<define-tag fixed-section>no</define-tag>

#use wml::debian::security

