<define-tag pagetitle>DLA-1033-1 memcached</define-tag>
<define-tag report_date>2017-7-20</define-tag>
<define-tag secrefs>CVE-2017-9951 Bug##868701</define-tag>
<define-tag packages>memcached</define-tag>
<define-tag isvulnerable>yes</define-tag>
<define-tag fixed>yes</define-tag>
<define-tag fixed-section>no</define-tag>

#use wml::debian::security

