<define-tag pagetitle>DLA-809-1 tcpdump</define-tag>
<define-tag report_date>2017-1-30</define-tag>
<define-tag secrefs>CVE-2016-7922 CVE-2016-7923 CVE-2016-7924 CVE-2016-7925 CVE-2016-7926 CVE-2016-7927 CVE-2016-7928 CVE-2016-7929 CVE-2016-7930 CVE-2016-7931 CVE-2016-7932 CVE-2016-7933 CVE-2016-7934 CVE-2016-7935 CVE-2016-7936 CVE-2016-7937 CVE-2016-7938 CVE-2016-7939 CVE-2016-7940 CVE-2016-7973 CVE-2016-7974 CVE-2016-7975 CVE-2016-7983 CVE-2016-7984 CVE-2016-7985 CVE-2016-7986 CVE-2016-7992 CVE-2016-7993 CVE-2016-8574 CVE-2016-8575 CVE-2017-5202 CVE-2017-5203 CVE-2017-5204 CVE-2017-5205 CVE-2017-5341 CVE-2017-5342 CVE-2017-5482 CVE-2017-5483 CVE-2017-5484 CVE-2017-5485 CVE-2017-5486</define-tag>
<define-tag packages>tcpdump</define-tag>
<define-tag isvulnerable>yes</define-tag>
<define-tag fixed>yes</define-tag>
<define-tag fixed-section>no</define-tag>

#use wml::debian::security

