<define-tag pagetitle>DLA-1158-1 bchunk</define-tag>
<define-tag report_date>2017-11-2</define-tag>
<define-tag secrefs>CVE-2017-15953 CVE-2017-15954 CVE-2017-15955 Bug#880116</define-tag>
<define-tag packages>bchunk</define-tag>
<define-tag isvulnerable>yes</define-tag>
<define-tag fixed>yes</define-tag>
<define-tag fixed-section>no</define-tag>

#use wml::debian::security

