<define-tag pagetitle>DLA-2502-1 postsrsd</define-tag>
<define-tag report_date>2020-12-20</define-tag>
<define-tag secrefs>CVE-2020-35573</define-tag>
<define-tag packages>postsrsd</define-tag>
<define-tag isvulnerable>yes</define-tag>
<define-tag fixed>yes</define-tag>
<define-tag fixed-section>no</define-tag>

#use wml::debian::security

