<define-tag pagetitle>DLA-2200-1 mailman</define-tag>
<define-tag report_date>2020-05-03</define-tag>
<define-tag secrefs>CVE-2020-12137</define-tag>
<define-tag packages>mailman</define-tag>
<define-tag isvulnerable>yes</define-tag>
<define-tag fixed>yes</define-tag>
<define-tag fixed-section>no</define-tag>

#use wml::debian::security

