<define-tag pagetitle>DLA-2152-1 graphicsmagick</define-tag>
<define-tag report_date>2020-03-21</define-tag>
<define-tag secrefs>CVE-2019-12921</define-tag>
<define-tag packages>graphicsmagick</define-tag>
<define-tag isvulnerable>yes</define-tag>
<define-tag fixed>yes</define-tag>
<define-tag fixed-section>no</define-tag>

#use wml::debian::security

