<define-tag pagetitle>DLA-1360-1 lucene-solr</define-tag>
<define-tag report_date>2018-4-24</define-tag>
<define-tag secrefs>CVE-2018-1308 Bug##896604</define-tag>
<define-tag packages>lucene-solr</define-tag>
<define-tag isvulnerable>yes</define-tag>
<define-tag fixed>yes</define-tag>
<define-tag fixed-section>no</define-tag>

#use wml::debian::security

