<define-tag pagetitle>DSA-4555-1 pam-python</define-tag>
<define-tag report_date>2019-10-29</define-tag>
<define-tag secrefs>CVE-2019-16729</define-tag>
<define-tag packages>pam-python</define-tag>
<define-tag isvulnerable>yes</define-tag>
<define-tag fixed>yes</define-tag>
<define-tag fixed-section>no</define-tag>

#use wml::debian::security



</dl>
