<define-tag pagetitle>DLA-1669-1 libreoffice</define-tag>
<define-tag report_date>2019-2-8</define-tag>
<define-tag secrefs>CVE-2018-16858</define-tag>
<define-tag packages>libreoffice</define-tag>
<define-tag isvulnerable>yes</define-tag>
<define-tag fixed>yes</define-tag>
<define-tag fixed-section>no</define-tag>

#use wml::debian::security

