<define-tag pagetitle>DLA-1826-1 glib2.0</define-tag>
<define-tag report_date>2019-06-18</define-tag>
<define-tag secrefs>CVE-2019-12450 Bug#929753</define-tag>
<define-tag packages>glib2.0</define-tag>
<define-tag isvulnerable>yes</define-tag>
<define-tag fixed>yes</define-tag>
<define-tag fixed-section>no</define-tag>

#use wml::debian::security

