<define-tag pagetitle>DLA-724-1 mcabber</define-tag>
<define-tag report_date>2016-11-27</define-tag>
<define-tag secrefs>Bug#845258</define-tag>
<define-tag packages>mcabber</define-tag>
<define-tag isvulnerable>yes</define-tag>
<define-tag fixed>yes</define-tag>
<define-tag fixed-section>no</define-tag>

#use wml::debian::security

